22 Feb 2019  10:39:59
=====================
   5 x French Baguette @ $4.00 ea. = $20.00
   5 x Orange Juice - Fresh @ $4.00 ea. = $20.00

Subtotal: $40.00

Tax(10.75%): $4.30
Total: $44.30

Cash Tendered: $50.00
Change Due: $5.70
