24 Jan 2019  12:42:02
=====================
   4 x Bear Claw @ $2.50 ea. = $10.00
   5 x Wheat Bread @ $3.00 ea. = $15.00

Subtotal: $25.00

Tax(10.75%): $2.69
Total: $27.69

Cash Tendered: $30.00
Change Due: $2.31
